{ "$schema": "http://json-schema.org/draft-04/schema#",
  "type": "object",
  "required": [ "mashup" ],
  "properties": {
    "mashup": {
      "type": [
        { "$ref": "#/definitions/rdfjson" },
        { "$ref": "#/definitions/text" } ] },
    "minDepth": {
      "type": "integer",
      "minimum": 1,
      "default": 1 },
    "maxDepth": {
      "type": "integer",
      "minimum": 1 },
    "actionComposition": {
      "type": "object",
      "properties": {
        "precursorActions": {
          "type": "string",
          "default": "NONE",
          "enum": [
            "NONE",
            "MINIMAL",
            "EXTENDED_ATOMIC",
            "EXTENDED_MINIMAL" ] },
        "functionalityProviders": {
          "type": "boolean",
          "default": false },
        "propertyProviders": {
          "type": "boolean",
          "default": false } } } },
  "definitions": {
    "rdfjson": {
      "type": { "$ref": "rdf.schema.json" } },
    "text": {
      "type": "object",
      "required": [ "mediaType", "content" ],
      "properties": {
        "mediaType": {
          "type": "string",
          "enum": [
            "application/rdf+json",
            "application/rdf+xml",
            "text/turtle" ] },
        "content": { "type": "string" } } } } }
