{ "minDepth": 1,
  "maxDepth": 4,
  "actionComposition": {
    "precursorActions": "MINIMAL",
    "functionalityProviders": true,
    "propertyProviders": true },
  "mashup": {
    "_:mashup": {
      "http://www.w3.org/1999/02/22-rdf-syntax-ns#type": [
        { "type": "uri",
          "value": "https://vsr.informatik.tu-chemnitz.de/projects/2014/cobalt/mashup#Mashup" } ],
      "https://vsr.informatik.tu-chemnitz.de/projects/2014/cobalt/mashup#realizesFunctionality": [
        { "type": "uri", "value": "urn:example:fn:SearchHotel" },
        { "type": "uri", "value": "urn:example:fn:BookHotel" } ] } } }
