{ "plans": [
    { "initialLevel": {
        "functionalityProvisions": [
          { "request": { "uri": "http://example.org/ont/travel#SearchAccommodation" },
            "offer": { "uri": "http://example.org/ont/travel#SearchHotel" },
            "distance": 1,
            "providingAction": {
              "widget": { "uri": "http://example.org/widgets/Globex/HotelSearch" },
              "realizedFunctionalities": [
                { "uri": "http://example.org/ont/travel#SearchHotel" } ],
              "interactions": [
                { "instructionText": "Select a hotel." } ] } } ] },
      "extensionLevels": [
        { "actionProvisions": [
            { "requestedAction": {
                "widget": { "uri": "http://example.org/widgets/Globex/HotelSearch" },
                "realizedFunctionalities": [
                  { "uri": "http://example.org/ont/travel#SearchHotel" } ],
                "interactions": [
                  { "instructionText": "Select a hotel." } ] },
              "propertyProvisions": [
                { "request": {
                    "name": "region",
                    "type": { "uri": "http://example.org/ont/geo#Region" } },
                  "offer": {
                    "name": "region",
                    "type": { "uri": "http://example.org/ont/Acme/geo#Region" } },
                  "distance": 2,
                  "providingAction": {
                    "widget": { "uri": "http://example.org/widgets/Acme/map" },
                    "publishedProperties": [
                      { "name": "region",
                        "type": { "uri": "http://example.org/ont/Acme/geo#Region" } } ],
                    "interactions": [
                      { "instructionText": "Select a region." } ] } },
                { "request": {
                    "name": "date",
                    "type": { "uri": "http://example.org/ont/time#DateRange" } },
                  "offer": {
                    "name": "dateRange",
                    "type": { "uri": "http://example.org/ont/time#DateRange" } },
                  "distance": 0,
                  "providingAction": {
                    "widget": { "uri": "http://example.org/widgets/calendar" },
                    "publishedProperties": [
                      { "name": "dateRange",
                        "type": { "uri": "http://example.org/ont/time#DateRange" } } ],
                    "interactions": [
                      { "instructionText": "Select a start and end date." } ] } } ] } ] } ] } ] }
